0 0 0 0 0 0	0.00396113
0 0 0 0 0 1	0.00480467
0 0 0 0 0 2	0.00319464
0 0 0 0 0 3	0.00027000
0 0 0 0 0 4	0.00005320
0 0 0 0 0 5	0.00001046
0 0 0 0 0 6	0.00000198
0 0 2 0 0 0	1.07033434
2 0 0 0 0 0	0.85653683
0 2 0 0 0 0	0.85653683
0 0 0 2 0 0	0.11106789
0 0 0 0 2 0	0.11106789
1 0 1 0 0 0	-0.03845365
0 1 1 0 0 0	-0.03845365
0 0 1 1 0 0	0.18422191
0 0 1 0 1 0	0.18422191
1 1 0 0 0 0	0.00034113
1 0 0 1 0 0	-0.00668184
0 1 0 0 1 0	-0.00668184
1 0 0 0 1 0	-0.00196092
0 1 0 1 0 0	-0.00196092
0 0 0 1 1 0	0.01745600
0 0 3 0 0 0	-1.18345015
3 0 0 0 0 0	-0.23754920
0 3 0 0 0 0	-0.23754920
0 0 0 3 0 0	-0.02615109
0 0 0 0 3 0	-0.02615109
1 0 2 0 0 0	-0.15446390
0 1 2 0 0 0	-0.15446390
0 0 2 1 0 0	-0.35538073
0 0 2 0 1 0	-0.35538073
2 0 1 0 0 0	0.07925928
0 2 1 0 0 0	0.07925928
0 0 1 2 0 0	-0.26791829
0 0 1 0 2 0	-0.26791829
1 2 0 0 0 0	-0.00408369
2 1 0 0 0 0	-0.00408369
1 0 0 2 0 0	-0.01932873
0 1 0 0 2 0	-0.01932873
2 0 0 1 0 0	-0.01107772
0 2 0 0 1 0	-0.01107772
1 0 0 0 2 0	-0.00815584
0 1 0 2 0 0	-0.00815584
2 0 0 0 1 0	0.00335581
0 2 0 1 0 0	0.00335581
0 0 0 1 2 0	-0.01353685
0 0 0 2 1 0	-0.01353685
1 1 1 0 0 0	0.01297257
1 0 1 1 0 0	-0.07451442
0 1 1 0 1 0	-0.07451442
1 0 1 0 1 0	-0.03375914
0 1 1 1 0 0	-0.03375914
0 0 1 1 1 0	-0.01676549
1 1 0 1 0 0	-0.00495022
1 1 0 0 1 0	-0.00495022
1 0 0 1 1 0	-0.00455155


0 1 0 1 1 0	-0.00455155
0 0 4 0 0 0	-0.91114371
4 0 0 0 0 0	-0.38794237
0 4 0 0 0 0	-0.38794237
0 0 0 4 0 0	-0.00503667
0 0 0 0 4 0	-0.00503667
2 0 2 0 0 0	-0.46529063
0 2 2 0 0 0	-0.46529063
0 0 2 2 0 0	0.07499351
0 0 2 0 2 0	0.07499351
2 2 0 0 0 0	-0.00797550
2 0 0 2 0 0	-0.04057873
0 2 0 0 2 0	-0.04057873
0 0 0 2 2 0	0.00364187
1 0 3 0 0 0	0.47679811
0 1 3 0 0 0	0.47679811
0 0 3 1 0 0	-0.41694250
0 0 3 0 1 0	-0.41694250
3 0 0 1 0 0	-0.06417306
0 3 0 0 1 0	-0.06417306
3 0 1 0 0 0	0.26181548
0 3 1 0 0 0	0.26181548
0 0 1 3 0 0	0.10331249
0 0 1 0 3 0	0.10331249
1 3 0 0 0 0	-0.01676460
3 1 0 0 0 0	-0.01676460
1 0 0 3 0 0	0.04972082
0 1 0 0 3 0	0.04972082
1 0 0 0 3 0	0.00353493
0 1 0 3 0 0	0.00353493
0 0 0 1 3 0	0.00451312
0 0 0 3 1 0	0.00451312
1 1 2 0 0 0	-0.05443810
1 0 2 1 0 0	0.06639535
0 1 2 0 1 0	0.06639535
1 0 2 0 1 0	0.03811353
0 1 2 1 0 0	0.03811353
0 0 2 1 1 0	-0.09184951
2 0 0 1 1 0	-0.01594273
0 2 0 1 1 0	-0.01594273
1 0 1 2 0 0	0.01376699
0 1 1 0 2 0	0.01376699
1 0 0 1 2 0	-0.01343723
0 1 0 2 1 0	-0.01343723
1 0 0 2 1 0	-0.00670949
0 1 0 1 2 0	-0.00670949
0 0 5 0 0 0	-0.73372711
5 0 0 0 0 0	-0.30456872
0 5 0 0 0 0	-0.30456872
0 0 0 5 0 0	0.00586074
0 0 0 0 5 0	0.00586074
0 0 0 6 0 0	-0.00552073
0 0 0 0 6 0	-0.00552073
0 0 0 4 1 0	0.00280767
0 0 0 1 4 0	0.00280767
0 0 0 3 2 0	0.00672968
0 0 0 2 3 0	0.00672968
0 0 1 4 0 0	0.06842595
0 0 1 0 4 0	0.06842595
0 0 2 3 0 0	0.04147135



0 0 2 0 3 0	0.04147135
1 0 0 4 0 0	-0.05190823
0 1 0 0 4 0	-0.05190823
2 0 0 3 0 0	0.04144437
0 2 0 0 3 0	0.04144437
0 0 1 0 0 1	-0.01680658
1 0 0 0 0 1	-0.00099460
0 1 0 0 0 1	-0.00099460
0 0 0 1 0 1	-0.01175779
0 0 0 0 1 1	-0.01175779
0 0 2 0 0 1	0.01740404
2 0 0 0 0 1	-0.00533897
0 2 0 0 0 1	-0.00533897
0 0 0 2 0 1	0.00542184
0 0 0 0 2 1	0.00542184
1 0 1 0 0 1	0.00264603
0 1 1 0 0 1	0.00264603
0 0 1 1 0 1	0.01858930
0 0 1 0 1 1	0.01858930
1 1 0 0 0 1	0.00512310
1 0 0 1 0 1	-0.00971598
0 1 0 0 1 1	-0.00971598
1 0 0 0 1 1	-0.00509582
0 1 0 1 0 1	-0.00509582
0 0 0 1 1 1	-0.01358156
0 0 3 0 0 1	0.00367419
3 0 0 0 0 1	-0.00961479
0 3 0 0 0 1	-0.00961479
0 0 0 3 0 1	-0.00113508
0 0 0 0 3 1	-0.00113508
1 0 2 0 0 1	0.01029005
0 1 2 0 0 1	0.01029005
0 0 2 1 0 1	-0.03739058
0 0 2 0 1 1	-0.03739058
0 0 1 2 0 1	-0.00705804
0 0 1 0 2 1	-0.00705804
1 2 0 0 0 1	0.00741845
2 1 0 0 0 1	0.00741845
1 0 0 2 0 1	0.00418133
0 1 0 0 2 1	0.00418133
1 0 0 0 2 1	-0.00554620
0 1 0 2 0 1	-0.00554620
0 0 0 1 2 1	-0.02043781
0 0 0 2 1 1	-0.02043781
1 1 1 0 0 1	-0.02426849
1 0 0 1 1 1	0.00152690
0 1 0 1 1 1	0.00152690
0 0 0 4 0 1	0.00050652
0 0 0 0 4 1	0.00050652
0 0 0 5 0 1	0.00149716
0 0 0 0 5 1	0.00149716
0 0 1 3 0 1	0.02229684
0 0 1 0 3 1	0.02229684
0 0 2 2 0 1	0.07188395
0 0 2 0 2 1	0.07188395
0 0 0 1 3 1	0.01643349
0 0 0 3 1 1	0.01643349
0 0 0 2 2 1	0.01815678
1 0 0 3 0 1	0.01600059
0 1 0 0 3 1	0.01600059


1 0 0 0 3 1	0.00731700
0 1 0 3 0 1	0.00731700
2 0 0 2 0 1	0.02671159
0 2 0 0 2 1	0.02671159
2 0 0 0 2 1	0.01555363
0 2 0 2 0 1	0.01555363
1 0 2 1 0 1	-0.13026695
0 1 2 0 1 1	-0.13026695
2 0 1 1 0 1	0.07343892
0 2 1 0 1 1	0.07343892
1 0 1 2 0 1	-0.08867641
0 1 1 0 2 1	-0.08867641
0 0 1 0 0 2	-0.01179302
1 0 0 0 0 2	0.00172440
0 1 0 0 0 2	0.00172440
0 0 0 1 0 2	-0.00153101
0 0 0 0 1 2	-0.00153101
0 0 2 0 0 2	0.01975589
2 0 0 0 0 2	0.00411038
0 2 0 0 0 2	0.00411038
0 0 0 2 0 2	0.00300448
0 0 0 0 2 2	0.00300448
1 0 1 0 0 2	-0.00741363
0 1 1 0 0 2	-0.00741363
0 0 1 1 0 2	0.00347946
0 0 1 0 1 2	0.00347946
1 1 0 0 0 2	-0.00036795
1 0 0 1 0 2	0.00250419
0 1 0 0 1 2	0.00250419
1 0 0 0 1 2	-0.00168054
0 1 0 1 0 2	-0.00168054
0 0 0 1 1 2	0.00914122
0 0 3 0 0 2	-0.02025215
3 0 0 0 0 2	0.00928423
0 3 0 0 0 2	0.00928423
0 0 0 3 0 2	-0.00593406
0 0 0 0 3 2	-0.00593406
0 0 0 2 1 2	-0.01229921
0 0 0 1 2 2	-0.01229921
0 0 1 2 0 2	0.00834341
0 0 1 0 2 2	0.00834341
1 0 2 0 0 2	0.03750856
0 1 2 0 0 2	0.03750856
2 0 1 0 0 2	-0.04339958
0 2 1 0 0 2	-0.04339958
0 0 0 4 0 2	0.00459296
0 0 0 0 4 2	0.00459296
0 0 0 1 3 2	0.00363642
0 0 0 3 1 2	0.00363642
0 0 0 2 2 2	0.00987656
2 0 0 1 0 2	0.01434378
0 2 0 0 1 2	0.01434378
1 0 0 2 0 2	0.00072217
0 1 0 0 2 2	0.00072217
1 0 0 0 2 2	-0.00159170
0 1 0 2 0 2	-0.00159170
1 0 1 1 0 2	-0.03962068
0 1 1 0 1 2	-0.03962068
1 0 1 0 1 2	-0.01733743
0 1 1 1 0 2	-0.01733743


0 0 1 3 0 2	0.02663106
0 0 1 0 3 2	0.02663106
0 0 1 0 0 3	-0.00188350
1 0 0 0 0 3	0.00052211
0 1 0 0 0 3	0.00052211
0 0 0 1 0 3	-0.00089434
0 0 0 0 1 3	-0.00089434
0 0 2 0 0 3	0.00482125
2 0 0 0 0 3	0.00031285
0 2 0 0 0 3	0.00031285
0 0 0 2 0 3	0.00103126
0 0 0 0 2 3	0.00103126
0 0 0 1 1 3	0.00224530
0 0 3 0 0 3	-0.00366922
0 0 0 3 0 3	-0.00033319
0 0 0 0 3 3	-0.00033319
0 0 0 1 2 3	-0.00319144
0 0 0 2 1 3	-0.00319144
0 0 1 1 0 3	0.00447017
0 0 1 0 1 3	0.00447017
1 0 0 1 0 3	-0.00147806
0 1 0 0 1 3	-0.00147806
1 0 0 0 1 3	-0.00085493
0 1 0 1 0 3	-0.00085493
0 0 2 1 0 3	-0.01101426
0 0 2 0 1 3	-0.01101426
0 0 1 0 0 4	-0.00043148
1 0 0 0 0 4	0.00013592
0 1 0 0 0 4	0.00013592
0 0 0 1 0 4	-0.00019174
0 0 0 0 1 4	-0.00019174
0 0 2 0 0 4	0.00122345
0 0 0 2 0 4	0.00026701
0 0 0 0 2 4	0.00026701
0 0 0 1 1 4	0.00054541
0 0 1 1 0 4	0.00057269
0 0 1 0 1 4	0.00057269
0 0 1 0 0 5	-0.00009076
1 0 0 0 0 5	0.00002273
0 1 0 0 0 5	0.00002273
0 0 0 1 0 5	-0.00004075
0 0 0 0 1 5	-0.00004075
